module majoo-test-case

go 1.16

require (
	github.com/dgrijalva/jwt-go v3.2.0+incompatible // indirect
	github.com/go-sql-driver/mysql v1.6.0 // indirect
	github.com/jinzhu/now v1.1.4 // indirect
	github.com/joho/godotenv v1.4.0
	github.com/labstack/echo/v4 v4.6.1
	gorm.io/driver/mysql v1.2.2
	gorm.io/gorm v1.22.4
)
